Initial capacity = 4000000
Configuration: threads = 1 elements = 4000000 random range = 2
Executing time: 2.689 seconds
Total elements removed: 1000
-------------------------------------------------------
Initial capacity = 4000000
Configuration: threads = 1 elements = 4000000 random range = 2
Executing time: 11.512 seconds
Total elements removed: 5000
-------------------------------------------------------
Initial capacity = 4000000
Configuration: threads = 1 elements = 4000000 random range = 2
Executing time: 22.916 seconds
Total elements removed: 10000
-------------------------------------------------------
Initial capacity = 4000000
Configuration: threads = 1 elements = 4000000 random range = 2
Executing time: 44.911 seconds
Total elements removed: 20000
-------------------------------------------------------
Initial capacity = 4000000
Configuration: threads = 1 elements = 4000000 random range = 2
Executing time: 65.684 seconds
Total elements removed: 30000
-------------------------------------------------------
Initial capacity = 4000000
Configuration: threads = 1 elements = 4000000 random range = 2
Executing time: 87.357 seconds
Total elements removed: 40000
-------------------------------------------------------
Initial capacity = 4000000
Configuration: threads = 1 elements = 4000000 random range = 2
Executing time: 112.183 seconds
Total elements removed: 50000
-------------------------------------------------------
Initial capacity = 4000000
Configuration: threads = 7 elements = 4000000 random range = 2
Executing time: 2.698 seconds
Total elements removed: 1000
-------------------------------------------------------
Initial capacity = 4000000
Configuration: threads = 7 elements = 4000000 random range = 2
Executing time: 11.78 seconds
Total elements removed: 5000
-------------------------------------------------------
Initial capacity = 4000000
Configuration: threads = 7 elements = 4000000 random range = 2
Executing time: 23.198 seconds
Total elements removed: 10000
-------------------------------------------------------
Initial capacity = 4000000
Configuration: threads = 7 elements = 4000000 random range = 2
Executing time: 45.555 seconds
Total elements removed: 20000
-------------------------------------------------------
Initial capacity = 4000000
Configuration: threads = 7 elements = 4000000 random range = 2
Executing time: 68.353 seconds
Total elements removed: 30000
-------------------------------------------------------
Initial capacity = 4000000
Configuration: threads = 7 elements = 4000000 random range = 2
Executing time: 90.137 seconds
Total elements removed: 40000
-------------------------------------------------------
Initial capacity = 4000000
Configuration: threads = 7 elements = 4000000 random range = 2
Executing time: 112.319 seconds
Total elements removed: 50000
-------------------------------------------------------
