Grain = 8
Configuration: threads = 1 elements = 40000000 random Range = 100000000
Executing time: 54.208 seconds
Total elements added: 40000000

----------------------------------------------
Grain = 8
Configuration: threads = 2 elements = 40000000 random Range = 100000000
Executing time: 61.781 seconds
Total elements added: 40000000

----------------------------------------------
Grain = 8
Configuration: threads = 3 elements = 40000000 random Range = 100000000
Executing time: 60.998 seconds
Total elements added: 40000000

----------------------------------------------
Grain = 8
Configuration: threads = 4 elements = 40000000 random Range = 100000000
Executing time: 58.92 seconds
Total elements added: 40000000

----------------------------------------------
Grain = 8
Configuration: threads = 5 elements = 40000000 random Range = 100000000
Executing time: 62.164 seconds
Total elements added: 40000000

----------------------------------------------
Grain = 8
Configuration: threads = 6 elements = 40000000 random Range = 100000000
Executing time: 60.011 seconds
Total elements added: 40000000

----------------------------------------------
Grain = 8
Configuration: threads = 7 elements = 40000000 random Range = 100000000
Executing time: 62.281 seconds
Total elements added: 40000000

----------------------------------------------
